@startuml

title Program Reminder\n

box "STB\n"
participant Launcher
participant ReminderManger
end box

Launcher->ReminderManger:boot
activate Launcher
activate ReminderManger
opt programlist.hasProgram(reminderProgram) && now < program.startTime
    ReminderManger->ReminderManger:add program to initial list
    activate ReminderManger
    deactivate ReminderManger
end
ReminderManger->ReminderManger:set && add initial list to reminder list
activate ReminderManger
deactivate ReminderManger
deactivate ReminderManger

Launcher->ReminderManger:reserve program
activate ReminderManger
alt program.isReserved == false
    ReminderManger->ReminderManger: set && add initial list to reminder list
    activate ReminderManger
    deactivate ReminderManger
else program.isReserved == true
    ReminderManger->ReminderManger:cancel && remove program from reminder list
    activate ReminderManger
    deactivate ReminderManger
end
deactivate ReminderManger

opt at time 1 minute Before reminder program start
    ReminderManger->ReminderManger:alert program reminder
    activate ReminderManger
    ReminderManger->Launcher:tune to the program
    deactivate ReminderManger
end
deactivate ReminderManger

@enduml