{
  "OptionType": "TimeShift",
  "Category": [
    {
      "type": "Favorite",
      "name": "Favorite",
      "isLeaf": true,
      "isRoot": true
    },
    {
      "type": "SubtitleOption",
      "name": "Subtitle",
      "isLeaf": false,
      "isRoot": true
    },
    {
      "type": "AudioOption",
      "name": "Audio",
      "isLeaf": false,
      "isRoot": true
    },
    {
      "type": "section",
      "name": "",
      "isLeaf": true,
      "isRoot": true
    },
    {
      "type": "link",
      "name": "4 Channels Multiview",
      "action": "com.kt.amuz4ch",
      "isLeaf": true,
      "isRoot": true
    },
    {
      "type": "BroadCastEvent",
      "name": "Channel Guide",
      "action": "altimedia.intent.action.ChannelGuide",
      "isLeaf": true,
      "isRoot": true
    }
  ]
}